<?xml version="1.0" encoding="UTF-8" standalone="no"?>
<!-- Created with Inkscape (http://www.inkscape.org/) -->

<svg
   xmlns:dc="http://purl.org/dc/elements/1.1/"
   xmlns:cc="http://creativecommons.org/ns#"
   xmlns:rdf="http://www.w3.org/1999/02/22-rdf-syntax-ns#"
   xmlns:svg="http://www.w3.org/2000/svg"
   xmlns="http://www.w3.org/2000/svg"
   xmlns:sodipodi="http://sodipodi.sourceforge.net/DTD/sodipodi-0.dtd"
   xmlns:inkscape="http://www.inkscape.org/namespaces/inkscape"
   width="240"
   height="50"
   viewBox="0 0 234.5296 77.975351"
   version="1.1"
   id="svg22964"
   inkscape:version="0.92.0 r15299"
   sodipodi:docname="meo.svg">
  <defs
     id="defs22958">
    <style
       id="style22966">.\38 0242d44-70a5-4446-a85e-542c54994383{fill:#0a99ab;}</style>
  </defs>
  <sodipodi:namedview
     id="base"
     pagecolor="#ffffff"
     bordercolor="#666666"
     borderopacity="1.0"
     inkscape:pageopacity="0.0"
     inkscape:pageshadow="2"
     inkscape:zoom="0.90784457"
     inkscape:cx="441.70558"
     inkscape:cy="145.855"
     inkscape:document-units="mm"
     inkscape:current-layer="layer1"
     showgrid="false"
     fit-margin-top="0"
     fit-margin-left="0"
     fit-margin-right="0"
     fit-margin-bottom="0"
     units="px"
     inkscape:window-width="1280"
     inkscape:window-height="744"
     inkscape:window-x="-4"
     inkscape:window-y="-4"
     inkscape:window-maximized="1" />
  <metadata
     id="metadata22961">
    <rdf:RDF>
      <cc:Work
         rdf:about="">
        <dc:format>image/svg+xml</dc:format>
        <dc:type
           rdf:resource="http://purl.org/dc/dcmitype/StillImage" />
        <dc:title></dc:title>
      </cc:Work>
    </rdf:RDF>
  </metadata>
  <g
     inkscape:label="Layer 1"
     inkscape:groupmode="layer"
     id="layer1"
     transform="translate(377.6715,-222.0857)">
    <g
       id="g23015"
       transform="translate(0.39687728,-0.39686251)">
      <path
         id="path22972"
         d="m -182.64682,300.06104 c -21.34923,0 -38.71913,-17.31169 -38.71913,-38.59213 0,-21.28043 17.36725,-38.58947 38.71913,-38.58947 21.35187,0 38.71118,17.31168 38.71118,38.59212 0,21.28044 -17.3646,38.58948 -38.71118,38.58948 m 0,-63.25394 c -13.64457,0 -24.75707,11.06488 -24.75707,24.66446 0,13.59958 11.09928,24.65917 24.74648,24.65917 13.64721,0 24.74384,-11.05694 24.74384,-24.65917 0,-13.60223 -11.1125,-24.66181 -24.74384,-24.66181"
         class="80242d44-70a5-4446-a85e-542c54994383"
         inkscape:connector-curvature="0"
         style="fill:#0a99ab;stroke-width:0.26458332" />
      <path
         id="path22974"
         d="m -285.55386,254.65325 h 51.14925 c 3.7412,0 3.7412,13.49375 0,13.49375 h -51.14925 c -3.73592,0 -3.73592,-13.49375 0,-13.49375"
         class="80242d44-70a5-4446-a85e-542c54994383"
         inkscape:connector-curvature="0"
         style="fill:#0a99ab;stroke-width:0.26458332" />
      <path
         id="path22976"
         d="m -287.33186,231.25085 50.68358,-6.82096 c 3.70417,-0.49477 5.51921,12.88257 1.81239,13.38263 l -50.68093,6.81302 c -3.70417,0.50006 -5.52186,-12.87992 -1.8124,-13.37998"
         class="80242d44-70a5-4446-a85e-542c54994383"
         inkscape:connector-curvature="0"
         style="fill:#0a99ab;stroke-width:0.26458332" />
      <path
         id="path22978"
         d="m -287.33186,291.68962 50.68358,6.82096 c 3.70417,0.49742 5.51921,-12.87727 1.81239,-13.38262 l -50.68093,-6.81832 c -3.70417,-0.49741 -5.52186,12.88521 -1.8124,13.38263"
         class="80242d44-70a5-4446-a85e-542c54994383"
         inkscape:connector-curvature="0"
         style="fill:#0a99ab;stroke-width:0.26458332" />
      <path
         id="path22980"
         d="m -332.68409,228.32985 v 67.16448 c 0,3.73856 -13.49375,3.73856 -13.49375,0 v -67.16448 c 0,-3.73591 13.49375,-3.73591 13.49375,0"
         class="80242d44-70a5-4446-a85e-542c54994383"
         inkscape:connector-curvature="0"
         style="fill:#0a99ab;stroke-width:0.26458332" />
      <path
         id="path22982"
         d="m -310.30563,226.45131 9.09372,66.62473 c 0.49742,3.70417 -12.88256,5.52185 -13.38262,1.81239 l -9.09373,-66.62208 c -0.50006,-3.70416 12.88256,-5.52185 13.38263,-1.81504"
         class="80242d44-70a5-4446-a85e-542c54994383"
         inkscape:connector-curvature="0"
         style="fill:#0a99ab;stroke-width:0.26458332" />
      <path
         id="path22984"
         d="m -368.56424,226.45131 -9.09373,66.62473 c -0.49741,3.70681 12.87992,5.5245 13.37998,1.82033 l 9.09373,-66.62208 c 0.49742,-3.70417 -12.88256,-5.52185 -13.38262,-1.81504"
         class="80242d44-70a5-4446-a85e-542c54994383"
         inkscape:connector-curvature="0"
         style="fill:#0a99ab;stroke-width:0.26458332" />
    </g>
  </g>
</svg>
